#  ==========================================================================
#  Wavefront Material file
#  Exported by Red-i Productions' "Riptide Pro"
#  (a commercial plugin for Cinema 4D PC & Mac, R9.6 or later)
#  
#  Red-i Productions
#  http://skinprops.com
#  
#  ==========================================================================

newmtl default_Mat
illum 2
Kd 0.800000 0.800000 0.800000

newmtl VG17frt1
Ns 50.781250
illum 2
Kd 1.000000 1.000000 1.000000
Ks 0.000000 0.000000 0.000000
map_Kd VG18frt.tif

newmtl VG17lef2
Ns 50.781250
illum 2
Kd 1.000000 1.000000 1.000000
Ks 0.000000 0.000000 0.000000
map_Kd VG18lef2.tif
map_d VG18lef2.tif

newmtl VG17lef3
Ns 50.781250
illum 2
Kd 1.000000 1.000000 1.000000
Ks 0.000000 0.000000 0.000000
map_Kd VG18lef3.tif
map_d VG18lef3.tif

newmtl VG17flw3
Ns 50.781250
illum 2
Kd 1.000000 1.000000 1.000000
Ks 0.000000 0.000000 0.000000
map_Kd VG18flw3.tif
map_d VG18flw3.tif

newmtl VG17flw1
Ns 50.781250
illum 2
Kd 1.000000 1.000000 1.000000
Ks 0.000000 0.000000 0.000000
map_Kd VG18flw1.tif
map_d VG18flw1.tif

newmtl VG17flw2
Ns 50.781250
illum 2
Kd 1.000000 1.000000 1.000000
Ks 0.000000 0.000000 0.000000
map_Kd VG18flw2.tif
map_d VG18flw2.tif

newmtl VG17lef1
Ns 50.781250
illum 2
Kd 1.000000 1.000000 1.000000
Ks 0.000000 0.000000 0.000000
map_Kd VG18lef1.tif
map_d VG18lef1.tif

newmtl VG17brn1
Ns 50.781250
illum 2
Kd 1.000000 1.000000 1.000000
Ks 0.000000 0.000000 0.000000
map_Kd VG18brn1.tif
