# 3ds Max Wavefront OBJ Exporter v0.97b - (c)2007 guruware
# File Created: 04.07.2011 11:16:34

newmtl 03___Default
	Ns 10.0000
	Ni 1.5000
	d 1.0000
	Tr 0.0000
	Tf 1.0000 1.0000 1.0000 
	illum 2
	Ka 1.0000 1.0000 1.0000
	Kd 1.0000 1.0000 1.0000
	Ks 0.0000 0.0000 0.0000
	Ke 0.0000 0.0000 0.0000
	map_Kd fountainDe.png
	map_bump -bm 0.7600 Map__13_Normal Bump.png
